<svg xmlns="http://www.w3.org/2000/svg" width="24" height="24" viewBox="0 0 24 24">
    <path fill="#000" fill-rule="nonzero" d="M18 18V4.5A1.5 1.5 0 0 0 16.5 3H5.732c.17.294.268.636.268 1v16a1 1 0 0 0 2 0v-1.5a.5.5 0 0 1 .5-.5H18zm1 0h2.5a.5.5 0 0 1 .5.5v1a2.5 2.5 0 0 1-2.5 2.5H7a2 2 0 0 1-2-2V6H4a2 2 0 1 1 0-4h12.5A2.5 2.5 0 0 1 19 4.5V18zM9 19v1c0 .364-.097.706-.268 1H19.5a1.5 1.5 0 0 0 1.5-1.5V19H9zM5 5V4a1 1 0 1 0-1 1h1zm3.5 2a.5.5 0 0 1 0-1h7a.5.5 0 1 1 0 1h-7zm0 3a.5.5 0 0 1 0-1h7a.5.5 0 1 1 0 1h-7zm0 3a.5.5 0 1 1 0-1h7a.5.5 0 1 1 0 1h-7zm0 3a.5.5 0 1 1 0-1h5a.5.5 0 1 1 0 1h-5z"/>
</svg>
