<?xml version="1.0" encoding="UTF-8"?>
<svg width="10px" height="14px" viewBox="0 0 10 14" version="1.1" xmlns="http://www.w3.org/2000/svg" xmlns:xlink="http://www.w3.org/1999/xlink">
    <!-- Generator: Sketch 54 (76480) - https://sketchapp.com -->
    <title>Keyicons/Map-Pin</title>
    <desc>Created with Sketch.</desc>
    <defs>
        <path d="M8.08421053,1.34736842 C5.48378947,1.34736842 3.36842105,3.46273684 3.36842105,6.06315789 C3.36842105,9.6 8.08421053,14.8210526 8.08421053,14.8210526 C8.08421053,14.8210526 12.8,9.6 12.8,6.06315789 C12.8,3.46273684 10.6846316,1.34736842 8.08421053,1.34736842 L8.08421053,1.34736842 Z M10.7789474,6.73684211 L8.75789474,6.73684211 L8.75789474,8.75789474 L7.41052632,8.75789474 L7.41052632,6.73684211 L5.38947368,6.73684211 L5.38947368,5.38947368 L7.41052632,5.38947368 L7.41052632,3.36842105 L8.75789474,3.36842105 L8.75789474,5.38947368 L10.7789474,5.38947368 L10.7789474,6.73684211 L10.7789474,6.73684211 Z" id="path-1"></path>
    </defs>
    <g id="Symbols" stroke="none" stroke-width="1" fill="none" fill-rule="evenodd">
        <g id="Main/Footer" transform="translate(-688.000000, -18.000000)">
            <g id="Group-5" transform="translate(685.000000, 15.000000)">
                <g id="Group-2">
                    <g id="Maps/ic_add_location" transform="translate(0.000000, 2.000000)">
                        <polygon id="Bounds" points="0 0 16.1684211 0 16.1684211 16.1684211 0 16.1684211"></polygon>
                        <mask id="mask-2" fill="white">
                            <use xlink:href="#path-1"></use>
                        </mask>
                        <use id="Mask" fill="#000000" fill-rule="evenodd" xlink:href="#path-1"></use>
                        <g id="Color-/-Color-11" mask="url(#mask-2)" fill="#868E96" fill-rule="evenodd">
                            <rect id="color" x="0" y="0" width="16.1684211" height="16.1684211"></rect>
                        </g>
                    </g>
                </g>
            </g>
        </g>
    </g>
</svg>