<svg xmlns="http://www.w3.org/2000/svg" xmlns:xlink="http://www.w3.org/1999/xlink" width="350" height="240" viewBox="0 0 350 240">
  <defs>
    <rect id="overbox-a" width="350" height="240" x="0" y="0"/>
    <mask id="overbox-b" width="350" height="240" x="0" y="0" fill="#fff" maskContentUnits="userSpaceOnUse" maskUnits="objectBoundingBox">
      <use xlink:href="#overbox-a"/>
    </mask>
  </defs>
  <use fill="none" fill-rule="evenodd" stroke="#0383F0" stroke-dasharray="598 120" stroke-width="16" mask="url(#overbox-b)" xlink:href="#overbox-a"/>
</svg>
